{
  "title": "Static Analysis",
  "version": "v3.1.9 Beta",
  "file_name": "analyze.zip",
  "app_name": "WebViewIgnoreSSL",
  "app_type": "studio",
  "size": "0.05MB",
  "md5": "4af63eaa64d064499c94defc4e5211bf",
  "sha1": "a185fbbaa01eddc719a1acccfd48dae5e09c67b9",
  "sha256": "ee4a6139f6f729fadfc94864f7a2f9b44304f97e3f40f9ffe483cd93753b79d2",
  "package_name": "opensecurity.webviewignoressl",
  "main_activity": ".MainActivity",
  "exported_activities": [],
  "browsable_activities": {},
  "activities": [
    ".MainActivity"
  ],
  "receivers": [],
  "providers": [],
  "services": [],
  "libraries": [],
  "target_sdk": "",
  "max_sdk": "",
  "min_sdk": "",
  "version_name": "",
  "version_code": "",
  "icon_hidden": false,
  "icon_found": false,
  "certificate_analysis": {
    "certificate_info": "",
    "certificate_status": "",
    "description": ""
  },
  "permissions": {
    "android.permission.INTERNET": {
      "status": "normal",
      "info": "full Internet access",
      "description": "Allows an application to create network sockets."
    }
  },
  "manifest_analysis": [
    {
      "title": "Application Data can be Backed up<br>[android:allowBackup=true]",
      "stat": "medium",
      "desc": "This flag allows anyone to backup your application data via adb. It allows users who have enabled USB debugging to copy application data off of the device.",
      "name": "Application Data can be Backed up [android:allowBackup=true]",
      "component": []
    },
    {
      "title": "TaskAffinity is set for Activity </br>(.MainActivity)",
      "stat": "high",
      "desc": "If taskAffinity is set, then other application could read the Intents sent to Activities belonging to another task. Always use the default setting keeping the affinity as the package name in order to prevent sensitive information inside sent or received Intents from being read by another application.",
      "name": "TaskAffinity is set for Activity",
      "component": [
        ".MainActivity"
      ]
    },
    {
      "title": "Launch Mode of Activity (.MainActivity) is not standard.",
      "stat": "high",
      "desc": "An Activity should not be having the launch mode attribute set to \"singleTask/singleInstance\" as it becomes root Activity and it is possible for other applications to read the contents of the calling Intent. So it is required to use the \"standard\" launch mode attribute when sensitive information is included in an Intent.",
      "name": "Launch Mode of Activity is not standard.",
      "component": [
        ".MainActivity"
      ]
    }
  ],
  "network_security": [],
  "binary_analysis": [],
  "file_analysis": [],
  "android_api": {},
  "code_analysis": {
    "android_webview_ignore_ssl": {
      "files": {
        "opensecurity/webviewignoressl/MainActivity.java": "50,46"
      },
      "metadata": {
        "id": "android_webview_ignore_ssl",
        "description": "Insecure WebView Implementation. WebView ignores SSL Certificate errors and accept any SSL Certificate. This application is vulnerable to MITM attacks",
        "type": "RegexAnd",
        "pattern": [
          "onReceivedSslError\\(WebView",
          "\\.proceed\\(\\);"
        ],
        "severity": "high",
        "input_case": "exact",
        "cvss": 7.4,
        "cwe": "CWE-295 Improper Certificate Validation",
        "owasp-mobile": "M3: Insecure Communication",
        "masvs": "MSTG-NETWORK-3"
      }
    }
  },
  "niap_analysis": {
    "FCS_STO_EXT.1.1": {
      "choice": "The application does not store any credentials to non-volatile memory.",
      "description": "Storage of Credentials",
      "class": "Security Functional Requirements"
    },
    "FDP_DEC_EXT.1.1": {
      "choice": "The application has access to ['network connectivity'].",
      "description": "Access to Platform Resources",
      "class": "Security Functional Requirements"
    },
    "FDP_DEC_EXT.1.2": {
      "choice": "The application has access to no sensitive information repositories.",
      "description": "Access to Platform Resources",
      "class": "Security Functional Requirements"
    },
    "FDP_NET_EXT.1.1": {
      "choice": "The application has user/application initiated network communications.",
      "description": "Network Communications",
      "class": "Security Functional Requirements"
    },
    "FDP_DAR_EXT.1.1": {
      "choice": "The application does not encrypt files in non-volatile memory.",
      "description": "Encryption Of Sensitive Application Data",
      "class": "Security Functional Requirements"
    },
    "FTP_DIT_EXT.1.1": {
      "choice": "The application does not encrypt any data in traffic or does not transmit any data between itself and another trusted IT product.",
      "description": "Protection of Data in Transit",
      "class": "Security Functional Requirements"
    },
    "FCS_CKM_EXT.1.1": {
      "choice": "The application generate no asymmetric cryptographic keys.",
      "description": "Cryptographic Key Generation Services",
      "class": "Selection-Based Security Functional Requirements"
    }
  },
  "urls": [
    {
      "urls": [
        "https://tv.eurosport.com/"
      ],
      "path": "opensecurity/webviewignoressl/MainActivity.java"
    }
  ],
  "domains": {
    "tv.eurosport.com": {
      "bad": "no",
      "geolocation": {
        "ip": "104.115.146.75",
        "country_short": "US",
        "country_long": "United States of America",
        "region": "Massachusetts",
        "city": "Cambridge",
        "latitude": 42.363598,
        "longitude": -71.085205
      }
    }
  },
  "emails": [],
  "strings": [],
  "firebase_urls": [],
  "files": [
    "app/src/androidTest/java/opensecurity/webviewignoressl/ApplicationTest.java",
    "app/src/main/AndroidManifest.xml",
    "app/src/main/java/opensecurity/webviewignoressl/MainActivity.java",
    "app/src/main/res/layout/activity_main.xml",
    "app/src/main/res/menu/menu_main.xml",
    "app/src/main/res/values/dimens.xml",
    "app/src/main/res/values/strings.xml",
    "app/src/main/res/values/styles.xml",
    "app/src/main/res/values-w820dp/dimens.xml",
    "build/intermediates/dex-cache/cache.xml",
    "gradle/wrapper/gradle-wrapper.jar",
    "gradle/wrapper/gradle-wrapper.properties",
    "gradle.properties",
    "local.properties"
  ],
  "exported_count": {
    "exported_activities": 0,
    "exported_services": 0,
    "exported_receivers": 0,
    "exported_providers": 0
  },
  "apkid": {},
  "trackers": {},
  "playstore_details": {
    "error": true
  },
  "secrets": [],
  "average_cvss": 7.4,
  "security_score": 85
}